Lab 2
…
covid %>%
  filter(state %in% c("New York", "California", "Louisiana", "Florida")) %>%
  group_by(state)%>%
  mutate(newCases = cases - lag(cases)) %>%
  ungroup() ->
  new_covid4

right_join(new_covid4, new_pop4, by = "fips") -> covidPop4

covidPop4 %>%
  group_by(state.x, date) %>%
  mutate(newCasesPerCapita4 = newCases/pop2019) %>%
   mutate(avg4 = zoo::rollmean(newCasesPerCapita4, 7, fill = NA, allign = "right"))

## # A tibble: 37,059 x 12
## # Groups:   state.x, date [702]
##    date  county state.x  fips cases deaths newCases state.y Area_Name pop2019
##    <chr> <chr>  <chr>   <int> <int>  <int>    <int> <chr>   <chr>       <dbl>
##  1 2020 Orange Califo  6059     1      0       NA CA      Orange C  3.18e6
##  2 2020 Los A Califo  6037     1      0        0 CA      Los Ange  1.00e7
##  3 2020 Orange Califo  6059     1      0        0 CA      Orange C  3.18e6
##  4 2020 Los A Califo  6037     1      0        0 CA      Los Ange  1.00e7
##  5 2020 Orange Califo  6059     1      0        0 CA      Orange C  3.18e6
##  6 2020 Los A Califo  6037     1      0        0 CA      Los Ange  1.00e7
##  7 2020 Orange Califo  6059     1      0        0 CA      Orange C  3.18e6
##  8 2020 Los A Califo  6037     1      0        0 CA      Los Ange  1.00e7
##  9 2020 Orange Califo  6059     1      0        0 CA      Orange C  3.18e6
## 10 2020 Los A Califo  6037     1      0        0 CA      Los Ange  1.00e7
## #  with 37,049 more rows, and 2 more variables: newCasesPerCapita4 <dbl>,
## #   avg4 <dbl>
